{
    "KPlugin": {
        "Authors": [
            {
                "Email": "bettio@kde.org",
                "Name": "Davide Bettio"
            }
        ],
        "Id": "Prato",
        "License": "LGPLv3",
        "Name": "Prato",
        "Name[ast]": "Prato",
        "Name[bs]": "Prato",
        "Name[ca]": "Prato",
        "Name[ca@valencia]": "Prato",
        "Name[cs]": "Prato",
        "Name[da]": "Prato",
        "Name[de]": "Prato",
        "Name[el]": "Prato",
        "Name[en_GB]": "Prato",
        "Name[es]": "Prato",
        "Name[et]": "Prato",
        "Name[eu]": "Prato",
        "Name[fa]": "پراتو",
        "Name[fi]": "Prato",
        "Name[fr]": "Prato",
        "Name[ga]": "Prato",
        "Name[gl]": "Prato",
        "Name[hu]": "Prato",
        "Name[is]": "Prato",
        "Name[it]": "Prato",
        "Name[kk]": "Прато",
        "Name[ko]": "프라토",
        "Name[lt]": "Prato",
        "Name[mr]": "प्राटो",
        "Name[nb]": "Prato",
        "Name[nds]": "Prato",
        "Name[nl]": "Prato",
        "Name[pl]": "Prato",
        "Name[pt]": "Prato",
        "Name[pt_BR]": "Prato",
        "Name[ro]": "Prato",
        "Name[ru]": "Прато",
        "Name[sk]": "Prato",
        "Name[sl]": "Prato",
        "Name[sr]": "Прато",
        "Name[sr@ijekavian]": "Прато",
        "Name[sr@ijekavianlatin]": "Prato",
        "Name[sr@latin]": "Prato",
        "Name[tr]": "Prato",
        "Name[ug]": "پىراتو",
        "Name[uk]": "Прато",
        "Name[x-test]": "xxPratoxx",
        "Name[zh_CN]": "普拉托 "
    }
}
