{
    "KPlugin": {
        "Authors": [
            {
                "Email": "scingram@yahoo.com",
                "Name": "Scott Ingram"
            }
        ],
        "Id": "Colorado_Farm",
        "License": "LGPLv3",
        "Name": "Colorado Farm",
        "Name[ast]": "Granxa de Colorado",
        "Name[bg]": "Ферма в Колорадо",
        "Name[bs]": "Kolorado farma",
        "Name[ca]": "Granja de Colorado",
        "Name[ca@valencia]": "Granja de Colorado",
        "Name[cs]": "Farma v Coloradu",
        "Name[da]": "Colorado Farm",
        "Name[de]": "Colorado-Farm",
        "Name[el]": "Colorado Farm",
        "Name[en_GB]": "Colorado Farm",
        "Name[es]": "Granja de Colorado",
        "Name[et]": "Colorado farm",
        "Name[eu]": "Colorado-ko baserria",
        "Name[fi]": "Maatila Coloradossa",
        "Name[fr]": "Ferme du Colorado",
        "Name[ga]": "Colorado Farm",
        "Name[gl]": "Granxa de Colorado",
        "Name[hu]": "Colorado Farm",
        "Name[is]": "Býli í Colorado",
        "Name[it]": "Fattoria del Colorado",
        "Name[kk]": "Колорадо фермасы",
        "Name[ko]": "콜로라도 농장",
        "Name[lt]": "Kolorado ferma",
        "Name[lv]": "Kolorado ferma",
        "Name[nb]": "Gård i Colorado",
        "Name[nds]": "Colorado-Hoff",
        "Name[nl]": "Colorado Farm",
        "Name[nn]": "Gard i Colorado",
        "Name[pl]": "Farma w Kolorado",
        "Name[pt]": "Quinta do Colorado",
        "Name[pt_BR]": "Fazenda do Colorado",
        "Name[ru]": "Ранчо в Колорадо",
        "Name[sk]": "Farma Colorado",
        "Name[sl]": "Kmetija v Koloradu",
        "Name[sq]": "Colorado Farm",
        "Name[sr]": "Фарма у Колораду",
        "Name[sr@ijekavian]": "Фарма у Колораду",
        "Name[sr@ijekavianlatin]": "Farma u Koloradu",
        "Name[sr@latin]": "Farma u Koloradu",
        "Name[sv]": "Lantbruk i Colorado",
        "Name[tr]": "Colorado Çiftliği",
        "Name[uk]": "Ферма у Колорадо",
        "Name[x-test]": "xxColorado Farmxx",
        "Name[zh_CN]": "科罗拉多农场",
        "Name[zh_TW]": "科羅拉多農場"
    }
}
